\relax 
\@writefile{toc}{\contentsline {section}{\numberline {2.1}Some theorems and stuff}{2-1}}
\@writefile{toc}{\contentsline {subsection}{\numberline {2.1.1}A few items of note}{2-1}}
\@writefile{toc}{\contentsline {section}{\numberline {2.2}Next topic}{2-2}}
