\relax 
\ifx\hyper@anchor\@undefined
\global \let \oldcontentsline\contentsline
\gdef \contentsline#1#2#3#4{\oldcontentsline{#1}{#2}{#3}}
\global \let \oldnewlabel\newlabel
\gdef \newlabel#1#2{\newlabelxx{#1}#2}
\gdef \newlabelxx#1#2#3#4#5#6{\oldnewlabel{#1}{{#2}{#3}}}
\AtEndDocument{\let \contentsline\oldcontentsline
\let \newlabel\oldnewlabel}
\else
\global \let \hyper@last\relax 
\fi

\providecommand*\HyPL@Entry[1]{}
\citation{ijspeert2013dynamical}
\citation{ijspeert2013dynamical}
\bibdata{mybib}
\HyPL@Entry{0<</S/D>>}
\@writefile{toc}{\contentsline {section}{\numberline {I}Introduction}{1}{section.1}}
\@writefile{toc}{\contentsline {section}{\numberline {II}The Movement Primitive Setup}{1}{section.2}}
\bibcite{ijspeert2013dynamical}{1}
\bibstyle{plain}
\@writefile{toc}{\contentsline {section}{\numberline {III}Results}{2}{section.3}}
\@writefile{lot}{\contentsline {table}{\numberline {1}{\ignorespaces Example table\relax }}{2}{table.caption.1}}
\newlabel{eq:emc}{{2}{2}{Results\relax }{equation.3.2}{}}
\@writefile{toc}{\contentsline {section}{\numberline {IV}Discussion}{2}{section.4}}
\@writefile{toc}{\contentsline {subsection}{\numberline {I}Subsection One}{2}{subsection.4.1}}
\@writefile{toc}{\contentsline {subsection}{\numberline {II}Subsection Two}{2}{subsection.4.2}}
