\BOOKMARK [1][-]{section.1}{Introduction}{}
\BOOKMARK [1][-]{section.2}{The Movement Primitive Setup}{}
\BOOKMARK [1][-]{section.3}{Results}{}
\BOOKMARK [1][-]{section.4}{Discussion}{}
\BOOKMARK [2][-]{subsection.4.1}{Subsection One}{section.4}
\BOOKMARK [2][-]{subsection.4.2}{Subsection Two}{section.4}
